activationFunction,,trained_model,hive_name,qty_ground_truth,qty_predicted,true_positive,false_positive,false_negative,nr_imgs,precision,recall,f2score,f1
Mish,7,single_hive/Chueried_Hempbox,Chueried_Hempbox,774,91,85,6,689,40,0.934065934,0.109819121,0.133354252,0.05872093
Mish,7,on_qty_of_train_images/Echolinde_20,Chueried_Hempbox,774,569,23,546,281,40,0.040421793,0.075657895,0.06442577,0.05872093
Mish,7,on_qty_of_train_images/Echolinde_10,Chueried_Hempbox,774,464,23,441,328,40,0.049568966,0.065527066,0.061563169,0.05872093
Mish,17,staged_2/Chueried_Hive01_UnitedQueens,Chueried_Hempbox,774,355,17,338,269,40,0.047887324,0.059440559,0.05670447,0.05872093
Mish,7,single_hive/Doettingen_Hive1,Chueried_Hempbox,774,326,22,304,358,40,0.067484663,0.057894737,0.059588299,0.05872093
Mish,7,on_qty_of_train_images/Echolinde_40,Chueried_Hempbox,774,645,18,627,310,40,0.027906977,0.054878049,0.045988758,0.05872093
Mish,7,on_qty_of_train_images/Froh14_40,Chueried_Hempbox,774,445,19,426,335,40,0.042696629,0.053672316,0.051047824,0.05872093
Mish,7,on_qty_of_train_images/Froh14_20,Chueried_Hempbox,774,253,3,250,58,40,0.011857708,0.049180328,0.030181087,0.05872093
Mish,7,single_hive/ClemensYellow,Chueried_Hempbox,774,294,6,288,118,40,0.020408163,0.048387097,0.037974684,0.05872093
Mish,17,single_hive/Froh14,Chueried_Hempbox,774,333,12,321,262,40,0.036036036,0.04379562,0.041987404,0.05872093
Mish,8,single_hive/all_hives_trainP,Chueried_Hive01,132,130,130,0,2,20,1,0.984848485,0.987841945,0.05872093
Mish,15,staged_2/Froh14_20_Chueried_Hive01,Chueried_Hive01,132,126,123,3,9,20,0.976190476,0.931818182,0.940366972,0.05872093
Mish,8,individual_training/Chueried_Hive01,Chueried_Hive01,132,120,120,0,12,20,1,0.909090909,0.925925926,0.05872093
Mish,8,single_hive/Chueried_Hive01,Chueried_Hive01,132,117,116,1,16,20,0.991452991,0.878787879,0.899224806,0.05872093
Mish,8,individual_training/Chueried_Hive01_red70,Chueried_Hive01,132,117,114,3,18,20,0.974358974,0.863636364,0.88372093,0.05872093
Mish,8,on_qty_of_train_images/Froh14_40,Chueried_Hive01,132,114,92,22,40,20,0.807017544,0.696969697,0.716510903,0.05872093
Mish,15,single_hive/Froh14,Chueried_Hive01,132,87,85,2,47,20,0.977011494,0.643939394,0.691056911,0.05872093
Mish,8,on_qty_of_train_images/Froh14_20,Chueried_Hive01,132,95,85,10,47,20,0.894736842,0.643939394,0.682182986,0.05872093
Mish,10,on_qty_of_train_images/Froh14_160,Chueried_Hive01,132,87,85,2,47,20,0.977011494,0.643939394,0.691056911,0.05872093
Mish,8,single_hive/Erlen_Hive04_diagonalview,Chueried_Hive01,132,126,79,47,53,20,0.626984127,0.598484848,0.603975535,0.05872093
Mish,5,single_hive/all_hives_trainP,Chueried_Hive01_green80,132,121,120,1,12,20,0.991735537,0.909090909,0.92449923,0.05872093
Mish,5,individual_training/Chueried_Hive01_red70,Chueried_Hive01_green80,132,116,114,2,18,20,0.982758621,0.863636364,0.885093168,0.05872093
Mish,5,individual_training/Chueried_Hive01,Chueried_Hive01_green80,132,93,93,0,39,20,1,0.704545455,0.748792271,0.05872093
Mish,5,single_hive/Chueried_Hive01,Chueried_Hive01_green80,132,90,89,1,43,20,0.988888889,0.674242424,0.720064725,0.05872093
Mish,5,on_qty_of_train_images/Froh14_40,Chueried_Hive01_green80,132,95,75,20,57,20,0.789473684,0.568181818,0.601926164,0.05872093
Mish,9,single_hive/Froh14,Chueried_Hive01_green80,132,67,67,0,65,20,1,0.507575758,0.56302521,0.05872093
Mish,9,on_qty_of_train_images/Froh14_160,Chueried_Hive01_green80,132,67,67,0,65,20,1,0.507575758,0.56302521,0.05872093
Mish,5,single_hive/Erlen_Hive04_diagonalview,Chueried_Hive01_green80,132,84,57,27,70,20,0.678571429,0.448818898,0.481418919,0.05872093
Mish,5,single_hive/Erlen_Hive11_grayscale,Chueried_Hive01_green80,132,71,58,13,74,20,0.816901408,0.439393939,0.484140234,0.05872093
Mish,5,single_hive/Erlen_Hive11,Chueried_Hive01_green80,132,56,54,2,78,20,0.964285714,0.409090909,0.462328767,0.05872093
Mish,0,single_hive/all_hives_trainP,Chueried_Hive01_red70,132,120,120,0,12,20,1,0.909090909,0.925925926,0.05872093
Mish,0,individual_training/Chueried_Hive01_red70,Chueried_Hive01_red70,132,118,115,3,17,20,0.974576271,0.871212121,0.890092879,0.05872093
Mish,13,staged_2/Froh14_20_Chueried_Hive01,Chueried_Hive01_red70,132,114,113,1,19,20,0.99122807,0.856060606,0.880062305,0.05872093
Mish,0,single_hive/Chueried_Hive01,Chueried_Hive01_red70,132,104,104,0,28,20,1,0.787878788,0.82278481,0.05872093
Mish,0,individual_training/Chueried_Hive01,Chueried_Hive01_red70,132,103,103,0,29,20,1,0.78030303,0.816164818,0.05872093
Mish,0,on_qty_of_train_images/Froh14_20,Chueried_Hive01_red70,132,78,78,0,54,20,1,0.590909091,0.643564356,0.05872093
Mish,0,on_qty_of_train_images/Froh14_40,Chueried_Hive01_red70,132,68,68,0,64,20,1,0.515151515,0.570469799,0.05872093
Mish,13,single_hive/Froh14,Chueried_Hive01_red70,132,67,67,0,65,20,1,0.507575758,0.56302521,0.05872093
Mish,17,on_qty_of_train_images/Froh14_160,Chueried_Hive01_red70,132,67,67,0,65,20,1,0.507575758,0.56302521,0.05872093
Mish,4,individual_training/Froh14,Chueried_Hive01_red70,132,60,60,0,72,20,1,0.454545455,0.510204082,0.05872093
Mish,9,single_hive/ClemensYellow,ClemensRed,336,234,185,49,151,20,0.790598291,0.550595238,0.586185044,0.05872093
Mish,9,single_hive/Doettingen_Hive1,ClemensRed,336,191,96,95,240,20,0.502617801,0.285714286,0.312703583,0.05872093
Mish,1,single_hive/Froh23_TreeCavity,ClemensRed,336,120,29,91,221,20,0.241666667,0.116,0.129464286,0.05872093
Mish,9,individual_training/Froh23_TreeCavity,ClemensRed,336,100,16,84,206,20,0.16,0.072072072,0.08097166,0.05872093
Mish,9,single_hive/Erlen_Hive11_Night,ClemensRed,336,44,12,32,228,20,0.272727273,0.05,0.059760956,0.05872093
Mish,9,individual_training/Chueried_Hive01_red70,ClemensRed,336,78,6,72,117,20,0.076923077,0.048780488,0.052631579,0.05872093
Mish,9,individual_training/Erlen_Hive11,ClemensRed,336,46,14,32,285,20,0.304347826,0.046822742,0.056360709,0.05872093
Mish,9,single_hive/Erlen_Hive04_frontview,ClemensRed,336,20,12,8,310,20,0.6,0.037267081,0.04587156,0.05872093
Mish,9,single_hive/Erlen_Hive04_smartphone,ClemensRed,336,20,7,13,288,20,0.35,0.023728814,0.029166667,0.05872093
Mish,9,on_qty_of_train_images/Echolinde_20,ClemensRed,336,48,3,45,132,20,0.0625,0.022222222,0.025510204,0.05872093
Mish,12,single_hive/ClemensYellow,ClemensYellow,486,484,370,114,116,20,0.76446281,0.761316872,0.761943987,0.05872093
Mish,12,single_hive/Doettingen_Hive1,ClemensYellow,486,185,107,78,379,20,0.578378378,0.220164609,0.251291686,0.05872093
Mish,12,on_qty_of_train_images/Froh14_40,ClemensYellow,486,76,8,68,166,20,0.105263158,0.045977011,0.051813472,0.05872093
Mish,12,single_hive/Erlen_Hive11_Night,ClemensYellow,486,74,10,64,219,20,0.135135135,0.043668122,0.050505051,0.05872093
Mish,12,individual_training/Froh23_TreeCavity,ClemensYellow,486,64,4,60,102,20,0.0625,0.037735849,0.040983607,0.05872093
Mish,12,individual_training/Chueried_Hive01_red70,ClemensYellow,486,76,5,71,132,20,0.065789474,0.03649635,0.040064103,0.05872093
Mish,4,staged_2/Froh14_20_Chueried_Hive01,ClemensYellow,486,62,4,58,146,20,0.064516129,0.026666667,0.03021148,0.05872093
Mish,12,on_qty_of_train_images/Froh14_20,ClemensYellow,486,66,4,62,156,20,0.060606061,0.025,0.028328612,0.05872093
Mish,12,single_hive/Erlen_Hive04_frontview,ClemensYellow,486,16,10,6,446,20,0.625,0.021929825,0.027173913,0.05872093
Mish,12,on_qty_of_train_images/Echolinde_20,ClemensYellow,486,43,4,39,214,20,0.093023256,0.018348624,0.021857923,0.05872093
Mish,18,single_hive/Doettingen_Hive1,Doettingen_Hive1,1301,1310,1253,57,48,40,0.95648855,0.963105304,0.961774639,0.05872093
Mish,18,on_qty_of_train_images/Echolinde_20,Doettingen_Hive1,1301,1191,1106,85,195,40,0.928631402,0.850115296,0.864738077,0.05872093
Mish,18,on_qty_of_train_images/Echolinde_40,Doettingen_Hive1,1301,1180,1016,164,285,40,0.861016949,0.78093774,0.795739348,0.05872093
Mish,18,single_hive/Echolinde,Doettingen_Hive1,1301,1068,989,79,312,40,0.926029963,0.760184473,0.788424745,0.05872093
Mish,18,single_hive/all_hives_trainP,Doettingen_Hive1,1301,1043,989,54,312,40,0.94822627,0.760184473,0.791579958,0.05872093
Mish,8,on_qty_of_train_images/Echolinde_80,Doettingen_Hive1,1301,1068,989,79,312,40,0.926029963,0.760184473,0.788424745,0.05872093
Mish,18,on_qty_of_train_images/Echolinde_10,Doettingen_Hive1,1301,925,873,52,428,40,0.943783784,0.671022291,0.712187959,0.05872093
Mish,18,single_hive/Erlen_Hive04_frontview,Doettingen_Hive1,1301,865,834,31,467,40,0.96416185,0.64104535,0.687098369,0.05872093
Mish,18,single_hive/Erlen_Hive11_grayscale,Doettingen_Hive1,1301,864,814,50,487,40,0.94212963,0.62567256,0.670731707,0.05872093
Mish,2,staged_2/Froh14_20_Chueried_Hive01,Doettingen_Hive1,1301,798,732,66,569,40,0.917293233,0.56264412,0.609796734,0.05872093
Mish,10,single_hive/Echolinde,Echolinde,921,874,852,22,69,20,0.974828375,0.925081433,0.934620448,0.05872093
Mish,10,on_qty_of_train_images/Echolinde_20,Echolinde,921,884,852,32,69,20,0.963800905,0.925081433,0.932574431,0.05872093
Mish,12,on_qty_of_train_images/Echolinde_80,Echolinde,921,874,852,22,69,20,0.974828375,0.925081433,0.934620448,0.05872093
Mish,10,on_qty_of_train_images/Echolinde_40,Echolinde,921,874,851,23,70,20,0.973684211,0.923995657,0.933523475,0.05872093
Mish,10,on_qty_of_train_images/Echolinde_10,Echolinde,921,872,841,31,80,20,0.964449541,0.913137894,0.922958736,0.05872093
Mish,10,single_hive/Doettingen_Hive1,Echolinde,921,860,814,46,107,20,0.946511628,0.883821933,0.89568662,0.05872093
Mish,10,single_hive/Erlen_Hive11_grayscale,Echolinde,921,760,722,38,199,20,0.95,0.78393051,0.812331233,0.05872093
Mish,10,single_hive/Echolinde_Night,Echolinde,921,580,573,7,348,20,0.987931034,0.622149837,0.671904315,0.05872093
Mish,10,on_qty_of_train_images/Froh14_20,Echolinde,921,704,541,163,380,20,0.768465909,0.587404995,0.616453965,0.05872093
Mish,10,single_hive/all_hives_trainP,Echolinde,921,575,522,53,399,20,0.907826087,0.566775244,0.612819911,0.05872093
Mish,14,single_hive/Echolinde_Night,Echolinde_Night,432,471,408,63,24,20,0.866242038,0.944444444,0.927694407,0.05872093
Mish,14,single_hive/Erlen_Hive11_Night,Echolinde_Night,432,401,376,25,56,20,0.93765586,0.87037037,0.883043682,0.05872093
Mish,14,single_hive/Doettingen_Hive1,Echolinde_Night,432,392,348,44,84,20,0.887755102,0.805555556,0.820754717,0.05872093
Mish,14,on_qty_of_train_images/Echolinde_20,Echolinde_Night,432,362,331,31,101,20,0.914364641,0.766203704,0.791866029,0.05872093
Mish,14,single_hive/all_hives_trainP,Echolinde_Night,432,335,301,34,131,20,0.898507463,0.696759259,0.729520116,0.05872093
Mish,14,single_hive/Echolinde,Echolinde_Night,432,297,282,15,150,20,0.949494949,0.652777778,0.696296296,0.05872093
Mish,5,on_qty_of_train_images/Echolinde_80,Echolinde_Night,432,297,282,15,150,20,0.949494949,0.652777778,0.696296296,0.05872093
Mish,14,single_hive/Erlen_Hive11_grayscale,Echolinde_Night,432,289,281,8,151,20,0.972318339,0.650462963,0.696579078,0.05872093
Mish,14,on_qty_of_train_images/Echolinde_40,Echolinde_Night,432,276,267,9,165,20,0.967391304,0.618055556,0.666167665,0.05872093
Mish,14,on_qty_of_train_images/Echolinde_10,Echolinde_Night,432,283,266,17,166,20,0.939929329,0.615740741,0.661362506,0.05872093
Mish,1,single_hive/Erlen_Hive04_diagonalview,Erlen_Hive04_diagonalview,607,581,563,18,44,40,0.969018933,0.927512356,0.935526753,0.05872093
Mish,1,single_hive/Erlen_Hive04_smartphone,Erlen_Hive04_diagonalview,607,507,493,14,114,40,0.972386588,0.812191104,0.839863714,0.05872093
Mish,1,single_hive/Erlen_Hive04_frontview,Erlen_Hive04_diagonalview,607,473,462,11,145,40,0.976744186,0.761120264,0.796277146,0.05872093
Mish,1,single_hive/all_hives_trainP,Erlen_Hive04_diagonalview,607,461,446,15,161,40,0.967462039,0.73476112,0.771893389,0.05872093
Mish,1,individual_training/Erlen_Hive11,Erlen_Hive04_diagonalview,607,467,425,42,182,40,0.91006424,0.700164745,0.73402418,0.05872093
Mish,1,single_hive/Erlen_Hive11_grayscale,Erlen_Hive04_diagonalview,607,453,412,41,195,40,0.909492274,0.678747941,0.715029504,0.05872093
Mish,1,single_hive/Erlen_Hive11,Erlen_Hive04_diagonalview,607,473,410,63,197,40,0.866807611,0.675453048,0.706652878,0.05872093
Mish,6,staged_2/Erlen_Hive11_UnitedQueens,Erlen_Hive04_diagonalview,607,408,395,13,212,40,0.968137255,0.650741351,0.696403385,0.05872093
Mish,6,staged_2/Froh14_20_Chueried_Hive01,Erlen_Hive04_diagonalview,607,385,340,45,267,40,0.883116883,0.560131796,0.604337007,0.05872093
Mish,6,staged_2/Chueried_Hive01_UnitedQueens,Erlen_Hive04_diagonalview,607,355,339,16,268,40,0.954929577,0.558484349,0.609054977,0.05872093
Mish,6,single_hive/Erlen_Hive04_frontview,Erlen_Hive04_frontview,570,575,561,14,9,40,0.975652174,0.984210526,0.982486865,0.05872093
Mish,6,single_hive/all_hives_trainP,Erlen_Hive04_frontview,570,582,555,27,15,40,0.953608247,0.973684211,0.969601677,0.05872093
Mish,6,single_hive/Erlen_Hive04_diagonalview,Erlen_Hive04_frontview,570,572,549,23,21,40,0.95979021,0.963157895,0.962482468,0.05872093
Mish,6,single_hive/Erlen_Hive11_grayscale,Erlen_Hive04_frontview,570,538,518,20,52,40,0.962825279,0.90877193,0.919091554,0.05872093
Mish,6,individual_training/Erlen_Hive11,Erlen_Hive04_frontview,570,525,512,13,58,40,0.975238095,0.898245614,0.912655971,0.05872093
Mish,7,staged_2/Erlen_Hive11_UnitedQueens,Erlen_Hive04_frontview,570,519,509,10,61,40,0.980732177,0.892982456,0.909253305,0.05872093
Mish,6,single_hive/Erlen_Hive11,Erlen_Hive04_frontview,570,527,504,23,66,40,0.956356736,0.884210526,0.897755611,0.05872093
Mish,6,single_hive/Erlen_Hive04_smartphone,Erlen_Hive04_frontview,570,513,500,13,70,40,0.974658869,0.877192982,0.89509488,0.05872093
Mish,6,single_hive/Doettingen_Hive1,Erlen_Hive04_frontview,570,582,499,83,71,40,0.857388316,0.875438596,0.871767994,0.05872093
Mish,7,staged_2/Froh14_20_Chueried_Hive01,Erlen_Hive04_frontview,570,499,469,30,101,40,0.93987976,0.822807018,0.843828715,0.05872093
Mish,2,single_hive/Erlen_Hive04_diagonalview,Erlen_Hive04_smartphone,302,305,279,26,23,20,0.914754098,0.92384106,0.922009253,0.05872093
Mish,2,single_hive/Erlen_Hive04_smartphone,Erlen_Hive04_smartphone,302,288,277,11,25,20,0.961805556,0.917218543,0.925802139,0.05872093
Mish,2,single_hive/all_hives_trainP,Erlen_Hive04_smartphone,302,298,276,22,26,20,0.926174497,0.913907285,0.916334661,0.05872093
Mish,3,staged_2/Erlen_Hive11_UnitedQueens,Erlen_Hive04_smartphone,302,261,245,16,57,20,0.938697318,0.811258278,0.833900613,0.05872093
Mish,3,staged_2/Froh14_20_Chueried_Hive01,Erlen_Hive04_smartphone,302,270,244,26,58,20,0.903703704,0.80794702,0.825439783,0.05872093
Mish,2,single_hive/Erlen_Hive04_frontview,Erlen_Hive04_smartphone,302,249,243,6,59,20,0.975903614,0.804635762,0.833905285,0.05872093
Mish,2,individual_training/Erlen_Hive11,Erlen_Hive04_smartphone,302,247,234,13,68,20,0.947368421,0.774834437,0.804123711,0.05872093
Mish,2,single_hive/Erlen_Hive11_grayscale,Erlen_Hive04_smartphone,302,238,227,11,75,20,0.953781513,0.751655629,0.784923928,0.05872093
Mish,3,staged_2/Chueried_Hive01_UnitedQueens,Erlen_Hive04_smartphone,302,238,218,20,84,20,0.915966387,0.721854305,0.753803596,0.05872093
Mish,1,single_hive/Froh14,Erlen_Hive04_smartphone,302,244,213,31,89,20,0.87295082,0.705298013,0.733471074,0.05872093
Mish,11,single_hive/all_hives_trainP,Erlen_Hive11,1632,1650,1571,79,61,20,0.952121212,0.962622549,0.960503791,0.05872093
Mish,11,individual_training/Erlen_Hive11,Erlen_Hive11,1632,1642,1549,93,83,20,0.943361754,0.949142157,0.947980416,0.05872093
Mish,11,single_hive/Erlen_Hive11_grayscale,Erlen_Hive11,1632,1632,1528,104,104,20,0.93627451,0.93627451,0.93627451,0.05872093
Mish,11,single_hive/Erlen_Hive11,Erlen_Hive11,1632,1479,1405,74,227,20,0.949966193,0.860906863,0.877357312,0.05872093
Mish,11,single_hive/Doettingen_Hive1,Erlen_Hive11,1632,1613,1381,232,251,20,0.85616863,0.84620098,0.8481759,0.05872093
Mish,11,single_hive/Erlen_Hive04_frontview,Erlen_Hive11,1632,1336,1297,39,335,20,0.970808383,0.794730392,0.824643947,0.05872093
Mish,11,single_hive/Erlen_Hive04_diagonalview,Erlen_Hive11,1632,1278,1234,44,398,20,0.965571205,0.756127451,0.790417627,0.05872093
Mish,11,single_hive/Echolinde,Erlen_Hive11,1632,1295,1179,116,453,20,0.91042471,0.722426471,0.753547233,0.05872093
Mish,2,on_qty_of_train_images/Echolinde_80,Erlen_Hive11,1632,1295,1179,116,453,20,0.91042471,0.722426471,0.753547233,0.05872093
Mish,11,on_qty_of_train_images/Echolinde_40,Erlen_Hive11,1632,1484,1165,319,467,20,0.785040431,0.713848039,0.727034448,0.05872093
Mish,13,single_hive/Erlen_Hive11_Night,Erlen_Hive11_Night,788,748,710,38,78,20,0.949197861,0.901015228,0.91025641,0.05872093
Mish,13,single_hive/Erlen_Hive11_grayscale,Erlen_Hive11_Night,788,747,675,72,113,20,0.903614458,0.856598985,0.865606566,0.05872093
Mish,13,single_hive/all_hives_trainP,Erlen_Hive11_Night,788,660,612,48,176,20,0.927272727,0.776649746,0.802728227,0.05872093
Mish,13,single_hive/Echolinde_Night,Erlen_Hive11_Night,788,615,561,54,227,20,0.912195122,0.711928934,0.74462437,0.05872093
Mish,13,single_hive/Doettingen_Hive1,Erlen_Hive11_Night,788,660,518,142,270,20,0.784848485,0.657360406,0.679433368,0.05872093
Mish,13,individual_training/Erlen_Hive11,Erlen_Hive11_Night,788,548,508,40,280,20,0.927007299,0.644670051,0.686486486,0.05872093
Mish,13,single_hive/Erlen_Hive11,Erlen_Hive11_Night,788,452,419,33,369,20,0.92699115,0.531725888,0.581298557,0.05872093
Mish,12,staged_2/Erlen_Hive11_UnitedQueens,Erlen_Hive11_Night,788,427,418,9,370,20,0.978922717,0.530456853,0.583962001,0.05872093
Mish,13,on_qty_of_train_images/Echolinde_20,Erlen_Hive11_Night,788,501,410,91,378,20,0.818363273,0.520304569,0.56118259,0.05872093
Mish,13,single_hive/Erlen_Hive04_smartphone,Erlen_Hive11_Night,788,398,379,19,409,20,0.952261307,0.480964467,0.533802817,0.05872093
Mish,16,single_hive/Erlen_Hive11_grayscale,Erlen_Hive11_grayscale,1632,1639,1532,107,100,20,0.93471629,0.93872549,0.937920901,0.05872093
Mish,16,single_hive/all_hives_trainP,Erlen_Hive11_grayscale,1632,1547,1500,47,132,20,0.969618617,0.919117647,0.92879257,0.05872093
Mish,16,individual_training/Erlen_Hive11,Erlen_Hive11_grayscale,1632,1401,1354,47,278,20,0.966452534,0.829656863,0.853827721,0.05872093
Mish,16,single_hive/Echolinde,Erlen_Hive11_grayscale,1632,1435,1310,125,322,20,0.912891986,0.802696078,0.822554314,0.05872093
Mish,4,on_qty_of_train_images/Echolinde_80,Erlen_Hive11_grayscale,1632,1435,1310,125,322,20,0.912891986,0.802696078,0.822554314,0.05872093
Mish,16,on_qty_of_train_images/Echolinde_20,Erlen_Hive11_grayscale,1632,1514,1296,218,336,20,0.856010568,0.794117647,0.805769709,0.05872093
Mish,16,on_qty_of_train_images/Echolinde_40,Erlen_Hive11_grayscale,1632,1465,1262,203,370,20,0.861433447,0.773284314,0.789440761,0.05872093
Mish,16,single_hive/Erlen_Hive11,Erlen_Hive11_grayscale,1632,1181,1150,31,482,20,0.973751058,0.704656863,0.745881437,0.05872093
Mish,16,single_hive/Doettingen_Hive1,Erlen_Hive11_grayscale,1632,1291,1117,174,515,20,0.865220759,0.684436275,0.714285714,0.05872093
Mish,16,on_qty_of_train_images/Echolinde_10,Erlen_Hive11_grayscale,1632,1207,1095,112,537,20,0.907207954,0.670955882,0.70782159,0.05872093
Mish,17,single_hive/Erlen_Hive11_grayscale,Erlen_Hive11_red70,1632,1572,1487,85,145,20,0.945928753,0.911151961,0.917901235,0.05872093
Mish,17,single_hive/all_hives_trainP,Erlen_Hive11_red70,1632,1501,1464,37,168,20,0.975349767,0.897058824,0.911695105,0.05872093
Mish,17,single_hive/Erlen_Hive11,Erlen_Hive11_red70,1632,1248,1217,31,415,20,0.975160256,0.745710784,0.782536008,0.05872093
Mish,17,single_hive/Echolinde,Erlen_Hive11_red70,1632,1271,1184,87,448,20,0.931549961,0.725490196,0.759071676,0.05872093
Mish,6,on_qty_of_train_images/Echolinde_80,Erlen_Hive11_red70,1632,1271,1184,87,448,20,0.931549961,0.725490196,0.759071676,0.05872093
Mish,17,on_qty_of_train_images/Echolinde_40,Erlen_Hive11_red70,1632,1379,1162,217,470,20,0.842639594,0.712009804,0.734791956,0.05872093
Mish,17,on_qty_of_train_images/Echolinde_20,Erlen_Hive11_red70,1632,1340,1156,184,476,20,0.862686567,0.708333333,0.734621251,0.05872093
Mish,17,individual_training/Erlen_Hive11,Erlen_Hive11_red70,1632,1043,1027,16,605,20,0.984659636,0.629289216,0.678245938,0.05872093
Mish,17,single_hive/Doettingen_Hive1,Erlen_Hive11_red70,1632,994,952,42,680,20,0.957746479,0.583333333,0.632810423,0.05872093
Mish,17,on_qty_of_train_images/Echolinde_10,Erlen_Hive11_red70,1632,972,909,63,723,20,0.935185185,0.556985294,0.606,0.05872093
Mish,7,single_hive/Froh14,Froh14,419,422,384,38,35,40,0.909952607,0.91646778,0.915157293,0.05872093
Mish,7,on_qty_of_train_images/Froh14_160,Froh14,419,422,384,38,35,40,0.909952607,0.91646778,0.915157293,0.05872093
Mish,15,on_qty_of_train_images/Froh14_40,Froh14,419,422,379,43,40,40,0.898104265,0.904534606,0.903241182,0.05872093
Mish,15,on_qty_of_train_images/Froh14_20,Froh14,419,415,372,43,47,40,0.896385542,0.887828162,0.889526542,0.05872093
Mish,7,on_qty_of_train_images/Froh14_80,Froh14,419,397,372,25,47,40,0.937027708,0.887828162,0.897250362,0.05872093
Mish,8,staged_2/Froh14_20_Chueried_Hive01,Froh14,419,416,370,46,49,40,0.889423077,0.883054893,0.884321224,0.05872093
Mish,7,individual_training/Froh14,Froh14,419,408,366,42,53,40,0.897058824,0.873508353,0.878119002,0.05872093
Mish,15,single_hive/all_hives_trainP,Froh14,419,403,363,40,56,40,0.900744417,0.866348449,0.873015873,0.05872093
Mish,15,on_qty_of_train_images/Froh14_10,Froh14,419,364,342,22,77,40,0.93956044,0.816229117,0.838235294,0.05872093
Mish,15,individual_training/Chueried_Hive01_red70,Froh14,419,370,332,38,87,40,0.897297297,0.792362768,0.811339198,0.05872093
Mish,3,single_hive/all_hives_trainP,Froh23_TreeCavity,158,146,140,6,18,40,0.95890411,0.886075949,0.899742931,0.05872093
Mish,10,single_hive/Froh23_TreeCavity,Froh23_TreeCavity,158,140,127,13,31,40,0.907142857,0.803797468,0.82253886,0.05872093
Mish,3,individual_training/Froh23_TreeCavity,Froh23_TreeCavity,158,135,124,11,34,40,0.918518519,0.784810127,0.808344198,0.05872093
Mish,3,single_hive/Erlen_Hive11_grayscale,Froh23_TreeCavity,158,148,108,40,47,40,0.72972973,0.696774194,0.703125,0.05872093
Mish,10,staged_2/Erlen_Hive11_UnitedQueens,Froh23_TreeCavity,158,226,73,153,68,40,0.32300885,0.517730496,0.462025316,0.05872093
Mish,3,single_hive/Erlen_Hive11,Froh23_TreeCavity,158,161,70,91,77,40,0.434782609,0.476190476,0.46728972,0.05872093
Mish,3,single_hive/Erlen_Hive04_smartphone,Froh23_TreeCavity,158,138,69,69,78,40,0.5,0.469387755,0.475206612,0.05872093
Mish,10,staged_2/Chueried_Hive01_UnitedQueens,Froh23_TreeCavity,158,163,63,100,78,40,0.386503067,0.446808511,0.433287483,0.05872093
Mish,3,single_hive/Erlen_Hive04_diagonalview,Froh23_TreeCavity,158,76,70,6,88,40,0.921052632,0.443037975,0.494350282,0.05872093
Mish,3,single_hive/Doettingen_Hive1,Froh23_TreeCavity,158,376,62,314,78,40,0.164893617,0.442857143,0.331196581,0.05872093
Mish,4,single_hive/all_hives_trainP,UnitedQueens,408,408,403,5,5,40,0.987745098,0.987745098,0.987745098,0.05872093
Mish,14,single_hive/UnitedQueens,UnitedQueens,408,408,402,6,6,40,0.985294118,0.985294118,0.985294118,0.05872093
Mish,14,staged_2/Erlen_Hive11_UnitedQueens,UnitedQueens,408,401,395,6,13,40,0.985037406,0.968137255,0.971470733,0.05872093
Mish,14,staged_2/Froh14_20_Chueried_Hive01,UnitedQueens,408,397,385,12,23,40,0.9697733,0.943627451,0.948743223,0.05872093
Mish,14,staged_2/Chueried_Hive01_UnitedQueens,UnitedQueens,408,378,373,5,35,40,0.986772487,0.914215686,0.927860697,0.05872093
Mish,4,single_hive/Erlen_Hive04_diagonalview,UnitedQueens,408,376,370,6,38,40,0.984042553,0.906862745,0.921314741,0.05872093
Mish,4,single_hive/Erlen_Hive11_grayscale,UnitedQueens,408,389,369,20,39,40,0.948586118,0.904411765,0.912914399,0.05872093
Mish,4,single_hive/Erlen_Hive04_frontview,UnitedQueens,408,388,364,24,44,40,0.93814433,0.892156863,0.900990099,0.05872093
Mish,4,individual_training/Erlen_Hive11,UnitedQueens,408,373,362,11,46,40,0.970509383,0.887254902,0.902743142,0.05872093
Mish,4,individual_training/Chueried_Hive01_red70,UnitedQueens,408,372,360,12,48,40,0.967741935,0.882352941,0.898203593,0.05872093